week 7/down_counter_jk.vcd
$date
	Mon Sep 29 15:30:18 2025
$end
$version
	Icarus Verilog
$end
$timescale
	1s
$end
$scope module tb_down_counter_2bit $end
$var wire 2 ! q [1:0] $end
$var reg 1 " clk $end
$var reg 1 # reset $end
$scope module uut $end
$var wire 1 $ clk $end
$var wire 1 % j0 $end
$var wire 1 & j1 $end
$var wire 1 ' k0 $end
$var wire 1 ( k1 $end
$var wire 2 ) q [1:0] $end
$var wire 1 * reset $end
$scope module jkff0 $end
$var wire 1 $ clk $end
$var wire 1 % j $end
$var wire 1 ' k $end
$var wire 1 * rst $end
$var reg 1 + q $end
$upscope $end
$scope module jkff1 $end
$var wire 1 $ clk $end
$var wire 1 & j $end
$var wire 1 ( k $end
$var wire 1 * rst $end
$var reg 1 , q $end
$upscope $end
$upscope $end
$upscope $end
$enddefinitions $end
#0
$dumpvars
0,
0+
1*
b0 )
1(
1'
1&
1%
0$
1#
0"
b0 !
$end
#5
1"
1$
#10
0"
0$
0#
0*
#15
0&
0(
1+
1,
b11 !
b11 )
1"
1$
#20
0"
0$
#25
1&
1(
0+
b10 !
b10 )
1"
1$
#30
0"
0$
#35
0&
0(
1+
0,
b1 !
b1 )
1"
1$
#40
0"
0$
#45
1&
1(
0+
b0 !
b0 )
1"
1$
#50
0"
0$
#55
0&
0(
1+
1,
b11 !
b11 )
1"
1$
#60
0"
0$
#65
1&
1(
0+
b10 !
b10 )
1"
1$
#70
0"
0$
#75
0&
0(
1+
0,
b1 !
b1 )
1"
1$
#80
0"
0$
#85
1&
1(
0+
b0 !
b0 )
1"
1$
#90
0"
0$
1#
1*
#95
1"
1$
#100
0"
0$
0#
0*
#105
0&
0(
1+
1,
b11 !
b11 )
1"
1$
#110
0"
0$
#115
1&
1(
0+
b10 !
b10 )
1"
1$
#120
0"
0$
#125
0&
0(
1+
0,
b1 !
b1 )
1"
1$
#130
0"
0$
#135
1&
1(
0+
b0 !
b0 )
1"
1$
