week 7/johnson_counter_3bit.vcd
$date
	Mon Sep 29 15:37:49 2025
$end
$version
	Icarus Verilog
$end
$timescale
	1s
$end
$scope module tb_johnson_counter $end
$var wire 3 ! q [2:0] $end
$var reg 1 " clk $end
$var reg 1 # reset $end
$scope module uut $end
$var wire 1 $ clk $end
$var wire 3 % q [2:0] $end
$var wire 1 & reset $end
$scope module dff0 $end
$var wire 1 ' D $end
$var wire 1 $ clk $end
$var wire 1 & rst $end
$var reg 1 ( Q $end
$upscope $end
$scope module dff1 $end
$var wire 1 ) D $end
$var wire 1 $ clk $end
$var wire 1 & rst $end
$var reg 1 * Q $end
$upscope $end
$scope module dff2 $end
$var wire 1 + D $end
$var wire 1 $ clk $end
$var wire 1 & rst $end
$var reg 1 , Q $end
$upscope $end
$upscope $end
$upscope $end
$enddefinitions $end
#0
$dumpvars
x,
x+
x*
x)
x(
x'
1&
bx %
0$
1#
0"
bx !
$end
#5
1'
0)
0+
0(
0*
0,
b0 !
b0 %
1"
1$
#10
0"
0$
0#
0&
#15
1)
1(
b1 !
b1 %
1"
1$
#20
0"
0$
#25
1+
1*
b11 !
b11 %
1"
1$
#30
0"
0$
#35
0'
1,
b111 !
b111 %
1"
1$
#40
0"
0$
#45
0)
0(
b110 !
b110 %
1"
1$
#50
0"
0$
#55
0+
0*
b100 !
b100 %
1"
1$
#60
0"
0$
#65
1'
0,
b0 !
b0 %
1"
1$
#70
0"
0$
#75
1)
1(
b1 !
b1 %
1"
1$
#80
0"
0$
#85
1+
1*
b11 !
b11 %
1"
1$
#90
0"
0$
#95
0'
1,
b111 !
b111 %
1"
1$
#100
0"
0$
#105
0)
0(
b110 !
b110 %
1"
1$
#110
0"
0$
#115
0+
0*
b100 !
b100 %
1"
1$
#120
0"
0$
#125
1'
0,
b0 !
b0 %
1"
1$
#130
0"
0$
1#
1&
#135
1"
1$
#140
0"
0$
0#
0&
#145
1)
1(
b1 !
b1 %
1"
1$
#150
0"
0$
#155
1+
1*
b11 !
b11 %
1"
1$
#160
0"
0$
#165
0'
1,
b111 !
b111 %
1"
1$
#170
0"
0$
#175
0)
0(
b110 !
b110 %
1"
1$
